module gitlab.com/vay3t/mubeng

go 1.18

require (
	github.com/AlecAivazis/survey/v2 v2.3.5
	github.com/briandowns/spinner v1.19.0
	github.com/elazarl/goproxy v0.0.0-20220529153421-8ea89ba92021
	github.com/fsnotify/fsnotify v1.5.4
	github.com/go-test/deep v1.0.8
	github.com/henvic/httpretty v0.1.0
	github.com/inconshreveable/go-update v0.0.0-20160112193335-8152e7eb6ccf
	github.com/kardianos/service v1.2.1
	github.com/logrusorgru/aurora v2.0.3+incompatible
	github.com/mbndr/logo v0.0.1
	github.com/projectdiscovery/gologger v1.1.4
	github.com/tcnksm/go-latest v0.0.0-20170313132115-e3007ae9052e
	h12.io/socks v1.0.3
)

require (
	github.com/fatih/color v1.7.0 // indirect
	github.com/google/go-github v17.0.0+incompatible // indirect
	github.com/google/go-querystring v1.1.0 // indirect
	github.com/hashicorp/go-version v1.6.0 // indirect
	github.com/json-iterator/go v1.1.10 // indirect
	github.com/kballard/go-shellquote v0.0.0-20180428030007-95032a82bc51 // indirect
	github.com/mattn/go-colorable v0.1.2 // indirect
	github.com/mattn/go-isatty v0.0.8 // indirect
	github.com/mgutz/ansi v0.0.0-20170206155736-9520e82c474b // indirect
	github.com/modern-go/concurrent v0.0.0-20180306012644-bacd9c7ef1dd // indirect
	github.com/modern-go/reflect2 v1.0.1 // indirect
	golang.org/x/net v0.0.0-20211015210444-4f30a5c0130f // indirect
	golang.org/x/sys v0.0.0-20220422013727-9388b58f7150 // indirect
	golang.org/x/term v0.0.0-20210503060354-a79de5458b56 // indirect
	golang.org/x/text v0.3.7 // indirect
)
